;
"Epidemiología";"Los estudios epidemiológicos, estudian la distribución y los factores determinantes de los acontecimientos relacionados con la salud de la población."
"Recursos humanos";"Lorem ipsum lorem ipsum lorem ipsum lorem ipsum ipsum"
"Centros";"On the other hand, we denounce with righteous indignation and dislike men who are so beguiled and demoralized by the charms of pleasure of the moment, so blinded by desire."
"Atención Primaria";"Este es mi ámbito de actuación y trabajo"
"Primaria";"definición del ámbito de primaria"
"ambito2";"ambito2"
"ambito3";"ambito3"
"ambito4";"ambito4"
"ambito5";"ambito5"
"test1";"test1"
"test2";"test2"
"Scope v8";"""On the other hand, we denounce with righteous indignation and dislike men who are so beguiled and demoralized by the charms of pleasure of the moment"
"Scope v3";"On the other hand, we denounce with righteous indignation and dislike men who are so beguiled and demoralized by the charms of pleasure of the moment"
"123";"1323"
